Proj-VHDL/tb_blocks/rf/RF.vcd
$date
  Fri Nov 23 20:04:21 2007
$end
$version
  GHDL v0
$end
$timescale
  1 fs
$end
$var reg 5 ! a1[4:0] $end
$var reg 5 " a2[4:0] $end
$var reg 5 # a3[4:0] $end
$var reg 32 $ wd3[31:0] $end
$var reg 1 % clk $end
$var reg 1 & we3 $end
$var reg 32 ' rd1[31:0] $end
$var reg 32 ( rd2[31:0] $end
$var reg 1 ) erro $end
$var reg 1 * clock $end
$scope module rf_tb $end
$var reg 5 + a1[4:0] $end
$var reg 5 , a2[4:0] $end
$var reg 5 - a3[4:0] $end
$var reg 32 . wd3[31:0] $end
$var reg 1 / clk $end
$var reg 1 0 we3 $end
$var reg 32 1 rd1[31:0] $end
$var reg 32 2 rd2[31:0] $end
$comment reg is not handled $end
$upscope $end
$enddefinitions $end
#0
bUUUUU !
bUUUUU "
b00000 #
b11111111111111111111111111111111 $
0%
1&
bUUUUUUUUUUUUUUUUUUUUUUUUUUUUUUUU '
bUUUUUUUUUUUUUUUUUUUUUUUUUUUUUUUU (
0)
0*
bUUUUU +
bUUUUU ,
b00000 -
b11111111111111111111111111111111 .
0/
10
bUUUUUUUUUUUUUUUUUUUUUUUUUUUUUUUU 1
bUUUUUUUUUUUUUUUUUUUUUUUUUUUUUUUU 2
#50000000
1%
1*
1/
#100000000
b00001 #
b00000001000000010000000100000001 $
0%
0*
b00001 -
b00000001000000010000000100000001 .
0/
#150000000
1%
1*
1/
#200000000
b00010 #
b00000010000000100000001000000010 $
0%
0*
b00010 -
b00000010000000100000001000000010 .
0/
#250000000
1%
1*
1/
#300000000
b00011 #
b00000011000000110000001100000011 $
0%
0*
b00011 -
b00000011000000110000001100000011 .
0/
#350000000
1%
1*
1/
#400000000
b00100 #
b00000100000001000000010000000100 $
0%
0*
b00100 -
b00000100000001000000010000000100 .
0/
#450000000
1%
1*
1/
#500000000
b00101 #
b00000101000001010000010100000101 $
0%
0*
b00101 -
b00000101000001010000010100000101 .
0/
#550000000
1%
1*
1/
#600000000
b00110 #
b00000110000001100000011000000110 $
0%
0*
b00110 -
b00000110000001100000011000000110 .
0/
#650000000
1%
1*
1/
#700000000
b00111 #
b00000111000001110000011100000111 $
0%
0*
b00111 -
b00000111000001110000011100000111 .
0/
#750000000
1%
1*
1/
#800000000
b01000 #
b00001000000010000000100000001000 $
0%
0*
b01000 -
b00001000000010000000100000001000 .
0/
#850000000
1%
1*
1/
#900000000
b01001 #
b00001001000010010000100100001001 $
0%
0*
b01001 -
b00001001000010010000100100001001 .
0/
#950000000
1%
1*
1/
#1000000000
b01010 #
b00001010000010100000101000001010 $
0%
0*
b01010 -
b00001010000010100000101000001010 .
0/
#1050000000
1%
1*
1/
#1100000000
b01011 #
b00001011000010110000101100001011 $
0%
0*
b01011 -
b00001011000010110000101100001011 .
0/
#1150000000
1%
1*
1/
#1200000000
b01100 #
b00001100000011000000110000001100 $
0%
0*
b01100 -
b00001100000011000000110000001100 .
0/
#1250000000
1%
1*
1/
#1300000000
b01101 #
b00001101000011010000110100001101 $
0%
0*
b01101 -
b00001101000011010000110100001101 .
0/
#1350000000
1%
1*
1/
#1400000000
b01110 #
b00001110000011100000111000001110 $
0%
0*
b01110 -
b00001110000011100000111000001110 .
0/
#1450000000
1%
1*
1/
#1500000000
b01111 #
b00001111000011110000111100001111 $
0%
0*
b01111 -
b00001111000011110000111100001111 .
0/
#1550000000
1%
1*
1/
#1600000000
b10000 #
b00010000000100000001000000010000 $
0%
0*
b10000 -
b00010000000100000001000000010000 .
0/
#1650000000
1%
1*
1/
#1700000000
b10001 #
b00010001000100010001000100010001 $
0%
0*
b10001 -
b00010001000100010001000100010001 .
0/
#1750000000
1%
1*
1/
#1800000000
b10010 #
b00010010000100100001001000010010 $
0%
0*
b10010 -
b00010010000100100001001000010010 .
0/
#1850000000
1%
1*
1/
#1900000000
b10011 #
b00010011000100110001001100010011 $
0%
0*
b10011 -
b00010011000100110001001100010011 .
0/
#1950000000
1%
1*
1/
#2000000000
b10100 #
b00010100000101000001010000010100 $
0%
0*
b10100 -
b00010100000101000001010000010100 .
0/
#2050000000
1%
1*
1/
#2100000000
b10101 #
b00010101000101010001010100010101 $
0%
0*
b10101 -
b00010101000101010001010100010101 .
0/
#2150000000
1%
1*
1/
#2200000000
b10110 #
b00010110000101100001011000010110 $
0%
0*
b10110 -
b00010110000101100001011000010110 .
0/
#2250000000
1%
1*
1/
#2300000000
b10111 #
b00010111000101110001011100010111 $
0%
0*
b10111 -
b00010111000101110001011100010111 .
0/
#2350000000
1%
1*
1/
#2400000000
b11000 #
b00011000000110000001100000011000 $
0%
0*
b11000 -
b00011000000110000001100000011000 .
0/
#2450000000
1%
1*
1/
#2500000000
b11001 #
b00011001000110010001100100011001 $
0%
0*
b11001 -
b00011001000110010001100100011001 .
0/
#2550000000
1%
1*
1/
#2600000000
b11010 #
b00011010000110100001101000011010 $
0%
0*
b11010 -
b00011010000110100001101000011010 .
0/
#2650000000
1%
1*
1/
#2700000000
b11011 #
b00011011000110110001101100011011 $
0%
0*
b11011 -
b00011011000110110001101100011011 .
0/
#2750000000
1%
1*
1/
#2800000000
b11100 #
b00011100000111000001110000011100 $
0%
0*
b11100 -
b00011100000111000001110000011100 .
0/
#2850000000
1%
1*
1/
#2900000000
b11101 #
b00011101000111010001110100011101 $
0%
0*
b11101 -
b00011101000111010001110100011101 .
0/
#2950000000
1%
1*
1/
#3000000000
b11110 #
b00011110000111100001111000011110 $
0%
0*
b11110 -
b00011110000111100001111000011110 .
0/
#3050000000
1%
1*
1/
#3100000000
b11111 #
b00011111000111110001111100011111 $
0%
0*
b11111 -
b00011111000111110001111100011111 .
0/
#3150000000
1%
1*
1/
#3200000000
b00000 #
b11111111111111111111111111111111 $
0%
0&
0*
b00000 -
b11111111111111111111111111111111 .
0/
00
#3250000000
1%
1*
1/
#3300000000
b00001 #
0%
0*
b00001 -
0/
#3350000000
1%
1*
1/
#3400000000
b00010 #
0%
0*
b00010 -
0/
#3450000000
1%
1*
1/
#3500000000
b00011 #
0%
0*
b00011 -
0/
#3550000000
1%
1*
1/
#3600000000
b00100 #
0%
0*
b00100 -
0/
#3650000000
1%
1*
1/
#3700000000
b00101 #
0%
0*
b00101 -
0/
#3750000000
1%
1*
1/
#3800000000
b00110 #
0%
0*
b00110 -
0/
#3850000000
1%
1*
1/
#3900000000
b00111 #
0%
0*
b00111 -
0/
#3950000000
1%
1*
1/
#4000000000
b01000 #
0%
0*
b01000 -
0/
#4050000000
1%
1*
1/
#4100000000
b01001 #
0%
0*
b01001 -
0/
#4150000000
1%
1*
1/
#4200000000
b01010 #
0%
0*
b01010 -
0/
#4250000000
1%
1*
1/
#4300000000
b01011 #
0%
0*
b01011 -
0/
#4350000000
1%
1*
1/
#4400000000
b01100 #
0%
0*
b01100 -
0/
#4450000000
1%
1*
1/
#4500000000
b01101 #
0%
0*
b01101 -
0/
#4550000000
1%
1*
1/
#4600000000
b01110 #
0%
0*
b01110 -
0/
#4650000000
1%
1*
1/
#4700000000
b01111 #
0%
0*
b01111 -
0/
#4750000000
1%
1*
1/
#4800000000
b10000 #
0%
0*
b10000 -
0/
#4850000000
1%
1*
1/
#4900000000
b10001 #
0%
0*
b10001 -
0/
#4950000000
1%
1*
1/
#5000000000
b10010 #
0%
0*
b10010 -
0/
#5050000000
1%
1*
1/
#5100000000
b10011 #
0%
0*
b10011 -
0/
#5150000000
1%
1*
1/
#5200000000
b10100 #
0%
0*
b10100 -
0/
#5250000000
1%
1*
1/
#5300000000
b10101 #
0%
0*
b10101 -
0/
#5350000000
1%
1*
1/
#5400000000
b10110 #
0%
0*
b10110 -
0/
#5450000000
1%
1*
1/
#5500000000
b10111 #
0%
0*
b10111 -
0/
#5550000000
1%
1*
1/
#5600000000
b11000 #
0%
0*
b11000 -
0/
#5650000000
1%
1*
1/
#5700000000
b11001 #
0%
0*
b11001 -
0/
#5750000000
1%
1*
1/
#5800000000
b11010 #
0%
0*
b11010 -
0/
#5850000000
1%
1*
1/
#5900000000
b11011 #
0%
0*
b11011 -
0/
#5950000000
1%
1*
1/
#6000000000
b11100 #
0%
0*
b11100 -
0/
#6050000000
1%
1*
1/
#6100000000
b11101 #
0%
0*
b11101 -
0/
#6150000000
1%
1*
1/
#6200000000
b11110 #
0%
0*
b11110 -
0/
#6250000000
1%
1*
1/
#6300000000
b11111 #
0%
0*
b11111 -
0/
#6350000000
1%
1*
1/
#6400000000
b00000 !
b11111 "
b00000 #
0%
b00000000000000000000000000000000 '
b00011111000111110001111100011111 (
0*
b00000 +
b11111 ,
b00000 -
0/
b00000000000000000000000000000000 1
b00011111000111110001111100011111 2
#6450000000
1%
1*
1/
#6500000000
b00001 !
b11110 "
b00001 #
0%
b00000001000000010000000100000001 '
b00011110000111100001111000011110 (
0*
b00001 +
b11110 ,
b00001 -
0/
b00000001000000010000000100000001 1
b00011110000111100001111000011110 2
#6550000000
1%
1*
1/
#6600000000
b00010 !
b11101 "
b00010 #
0%
b00000010000000100000001000000010 '
b00011101000111010001110100011101 (
0*
b00010 +
b11101 ,
b00010 -
0/
b00000010000000100000001000000010 1
b00011101000111010001110100011101 2
#6650000000
1%
1*
1/
#6700000000
b00011 !
b11100 "
b00011 #
0%
b00000011000000110000001100000011 '
b00011100000111000001110000011100 (
0*
b00011 +
b11100 ,
b00011 -
0/
b00000011000000110000001100000011 1
b00011100000111000001110000011100 2
#6750000000
1%
1*
1/
#6800000000
b00100 !
b11011 "
b00100 #
0%
b00000100000001000000010000000100 '
b00011011000110110001101100011011 (
0*
b00100 +
b11011 ,
b00100 -
0/
b00000100000001000000010000000100 1
b00011011000110110001101100011011 2
#6850000000
1%
1*
1/
#6900000000
b00101 !
b11010 "
b00101 #
0%
b00000101000001010000010100000101 '
b00011010000110100001101000011010 (
0*
b00101 +
b11010 ,
b00101 -
0/
b00000101000001010000010100000101 1
b00011010000110100001101000011010 2
#6950000000
1%
1*
1/
#7000000000
b00110 !
b11001 "
b00110 #
0%
b00000110000001100000011000000110 '
b00011001000110010001100100011001 (
0*
b00110 +
b11001 ,
b00110 -
0/
b00000110000001100000011000000110 1
b00011001000110010001100100011001 2
#7050000000
1%
1*
1/
#7100000000
b00111 !
b11000 "
b00111 #
0%
b00000111000001110000011100000111 '
b00011000000110000001100000011000 (
0*
b00111 +
b11000 ,
b00111 -
0/
b00000111000001110000011100000111 1
b00011000000110000001100000011000 2
#7150000000
1%
1*
1/
#7200000000
b01000 !
b10111 "
b01000 #
0%
b00001000000010000000100000001000 '
b00010111000101110001011100010111 (
0*
b01000 +
b10111 ,
b01000 -
0/
b00001000000010000000100000001000 1
b00010111000101110001011100010111 2
#7250000000
1%
1*
1/
#7300000000
b01001 !
b10110 "
b01001 #
0%
b00001001000010010000100100001001 '
b00010110000101100001011000010110 (
0*
b01001 +
b10110 ,
b01001 -
0/
b00001001000010010000100100001001 1
b00010110000101100001011000010110 2
#7350000000
1%
1*
1/
#7400000000
b01010 !
b10101 "
b01010 #
0%
b00001010000010100000101000001010 '
b00010101000101010001010100010101 (
0*
b01010 +
b10101 ,
b01010 -
0/
b00001010000010100000101000001010 1
b00010101000101010001010100010101 2
#7450000000
1%
1*
1/
#7500000000
b01011 !
b10100 "
b01011 #
0%
b00001011000010110000101100001011 '
b00010100000101000001010000010100 (
0*
b01011 +
b10100 ,
b01011 -
0/
b00001011000010110000101100001011 1
b00010100000101000001010000010100 2
#7550000000
1%
1*
1/
#7600000000
b01100 !
b10011 "
b01100 #
0%
b00001100000011000000110000001100 '
b00010011000100110001001100010011 (
0*
b01100 +
b10011 ,
b01100 -
0/
b00001100000011000000110000001100 1
b00010011000100110001001100010011 2
#7650000000
1%
1*
1/
#7700000000
b01101 !
b10010 "
b01101 #
0%
b00001101000011010000110100001101 '
b00010010000100100001001000010010 (
0*
b01101 +
b10010 ,
b01101 -
0/
b00001101000011010000110100001101 1
b00010010000100100001001000010010 2
#7750000000
1%
1*
1/
#7800000000
b01110 !
b10001 "
b01110 #
0%
b00001110000011100000111000001110 '
b00010001000100010001000100010001 (
0*
b01110 +
b10001 ,
b01110 -
0/
b00001110000011100000111000001110 1
b00010001000100010001000100010001 2
#7850000000
1%
1*
1/
#7900000000
b01111 !
b10000 "
b01111 #
0%
b00001111000011110000111100001111 '
b00010000000100000001000000010000 (
0*
b01111 +
b10000 ,
b01111 -
0/
b00001111000011110000111100001111 1
b00010000000100000001000000010000 2
#7950000000
1%
1*
1/
#8000000000
b10000 !
b01111 "
b10000 #
0%
b00010000000100000001000000010000 '
b00001111000011110000111100001111 (
0*
b10000 +
b01111 ,
b10000 -
0/
b00010000000100000001000000010000 1
b00001111000011110000111100001111 2
#8050000000
1%
1*
1/
#8100000000
b10001 !
b01110 "
b10001 #
0%
b00010001000100010001000100010001 '
b00001110000011100000111000001110 (
0*
b10001 +
b01110 ,
b10001 -
0/
b00010001000100010001000100010001 1
b00001110000011100000111000001110 2
#8150000000
1%
1*
1/
#8200000000
b10010 !
b01101 "
b10010 #
0%
b00010010000100100001001000010010 '
b00001101000011010000110100001101 (
0*
b10010 +
b01101 ,
b10010 -
0/
b00010010000100100001001000010010 1
b00001101000011010000110100001101 2
#8250000000
1%
1*
1/
#8300000000
b10011 !
b01100 "
b10011 #
0%
b00010011000100110001001100010011 '
b00001100000011000000110000001100 (
0*
b10011 +
b01100 ,
b10011 -
0/
b00010011000100110001001100010011 1
b00001100000011000000110000001100 2
#8350000000
1%
1*
1/
#8400000000
b10100 !
b01011 "
b10100 #
0%
b00010100000101000001010000010100 '
b00001011000010110000101100001011 (
0*
b10100 +
b01011 ,
b10100 -
0/
b00010100000101000001010000010100 1
b00001011000010110000101100001011 2
#8450000000
1%
1*
1/
#8500000000
b10101 !
b01010 "
b10101 #
0%
b00010101000101010001010100010101 '
b00001010000010100000101000001010 (
0*
b10101 +
b01010 ,
b10101 -
0/
b00010101000101010001010100010101 1
b00001010000010100000101000001010 2
#8550000000
1%
1*
1/
#8600000000
b10110 !
b01001 "
b10110 #
0%
b00010110000101100001011000010110 '
b00001001000010010000100100001001 (
0*
b10110 +
b01001 ,
b10110 -
0/
b00010110000101100001011000010110 1
b00001001000010010000100100001001 2
#8650000000
1%
1*
1/
#8700000000
b10111 !
b01000 "
b10111 #
0%
b00010111000101110001011100010111 '
b00001000000010000000100000001000 (
0*
b10111 +
b01000 ,
b10111 -
0/
b00010111000101110001011100010111 1
b00001000000010000000100000001000 2
#8750000000
1%
1*
1/
#8800000000
b11000 !
b00111 "
b11000 #
0%
b00011000000110000001100000011000 '
b00000111000001110000011100000111 (
0*
b11000 +
b00111 ,
b11000 -
0/
b00011000000110000001100000011000 1
b00000111000001110000011100000111 2
#8850000000
1%
1*
1/
#8900000000
b11001 !
b00110 "
b11001 #
0%
b00011001000110010001100100011001 '
b00000110000001100000011000000110 (
0*
b11001 +
b00110 ,
b11001 -
0/
b00011001000110010001100100011001 1
b00000110000001100000011000000110 2
#8950000000
1%
1*
1/
#9000000000
b11010 !
b00101 "
b11010 #
0%
b00011010000110100001101000011010 '
b00000101000001010000010100000101 (
0*
b11010 +
b00101 ,
b11010 -
0/
b00011010000110100001101000011010 1
b00000101000001010000010100000101 2
#9050000000
1%
1*
1/
#9100000000
b11011 !
b00100 "
b11011 #
0%
b00011011000110110001101100011011 '
b00000100000001000000010000000100 (
0*
b11011 +
b00100 ,
b11011 -
0/
b00011011000110110001101100011011 1
b00000100000001000000010000000100 2
#9150000000
1%
1*
1/
#9200000000
b11100 !
b00011 "
b11100 #
0%
b00011100000111000001110000011100 '
b00000011000000110000001100000011 (
0*
b11100 +
b00011 ,
b11100 -
0/
b00011100000111000001110000011100 1
b00000011000000110000001100000011 2
#9250000000
1%
1*
1/
#9300000000
b11101 !
b00010 "
b11101 #
0%
b00011101000111010001110100011101 '
b00000010000000100000001000000010 (
0*
b11101 +
b00010 ,
b11101 -
0/
b00011101000111010001110100011101 1
b00000010000000100000001000000010 2
#9350000000
1%
1*
1/
#9400000000
b11110 !
b00001 "
b11110 #
0%
b00011110000111100001111000011110 '
b00000001000000010000000100000001 (
0*
b11110 +
b00001 ,
b11110 -
0/
b00011110000111100001111000011110 1
b00000001000000010000000100000001 2
#9450000000
1%
1*
1/
#9500000000
b11111 !
b00000 "
b11111 #
0%
b00011111000111110001111100011111 '
b00000000000000000000000000000000 (
0*
b11111 +
b00000 ,
b11111 -
0/
b00011111000111110001111100011111 1
b00000000000000000000000000000000 2
#9550000000
1%
1*
1/
#9600000000
b00000 !
b11111 "
b00000 #
0%
1&
b00000000000000000000000000000000 '
b00011111000111110001111100011111 (
0*
b00000 +
b11111 ,
b00000 -
0/
10
b00000000000000000000000000000000 1
b00011111000111110001111100011111 2
#9650000000
1%
1*
1/
#9700000000
b00001 !
b11110 "
b00001 #
0%
b00000001000000010000000100000001 '
b00011110000111100001111000011110 (
0*
b00001 +
b11110 ,
b00001 -
0/
b00000001000000010000000100000001 1
b00011110000111100001111000011110 2
#9750000000
1%
1*
1/
#9800000000
b00010 !
b11101 "
b00010 #
0%
b00000010000000100000001000000010 '
b00011101000111010001110100011101 (
0*
b00010 +
b11101 ,
b00010 -
0/
b00000010000000100000001000000010 1
b00011101000111010001110100011101 2
#9850000000
1%
1*
1/
#9900000000
b00011 !
b11100 "
b00011 #
0%
b00000011000000110000001100000011 '
b00011100000111000001110000011100 (
0*
b00011 +
b11100 ,
b00011 -
0/
b00000011000000110000001100000011 1
b00011100000111000001110000011100 2
#9950000000
1%
1*
1/
#10000000000
b00100 !
b11011 "
b00100 #
0%
b00000100000001000000010000000100 '
b00011011000110110001101100011011 (
0*
b00100 +
b11011 ,
b00100 -
0/
b00000100000001000000010000000100 1
b00011011000110110001101100011011 2
#10050000000
1%
1*
1/
#10100000000
b00101 !
b11010 "
b00101 #
0%
b00000101000001010000010100000101 '
b00011010000110100001101000011010 (
0*
b00101 +
b11010 ,
b00101 -
0/
b00000101000001010000010100000101 1
b00011010000110100001101000011010 2
#10150000000
1%
1*
1/
#10200000000
b00110 !
b11001 "
b00110 #
0%
b00000110000001100000011000000110 '
b00011001000110010001100100011001 (
0*
b00110 +
b11001 ,
b00110 -
0/
b00000110000001100000011000000110 1
b00011001000110010001100100011001 2
#10250000000
1%
1*
1/
#10300000000
b00111 !
b11000 "
b00111 #
0%
b00000111000001110000011100000111 '
b00011000000110000001100000011000 (
0*
b00111 +
b11000 ,
b00111 -
0/
b00000111000001110000011100000111 1
b00011000000110000001100000011000 2
#10350000000
1%
1*
1/
#10400000000
b01000 !
b10111 "
b01000 #
0%
b00001000000010000000100000001000 '
b00010111000101110001011100010111 (
0*
b01000 +
b10111 ,
b01000 -
0/
b00001000000010000000100000001000 1
b00010111000101110001011100010111 2
#10450000000
1%
1*
1/
#10500000000
b01001 !
b10110 "
b01001 #
0%
b00001001000010010000100100001001 '
b00010110000101100001011000010110 (
0*
b01001 +
b10110 ,
b01001 -
0/
b00001001000010010000100100001001 1
b00010110000101100001011000010110 2
#10550000000
1%
1*
1/
#10600000000
b01010 !
b10101 "
b01010 #
0%
b00001010000010100000101000001010 '
b00010101000101010001010100010101 (
0*
b01010 +
b10101 ,
b01010 -
0/
b00001010000010100000101000001010 1
b00010101000101010001010100010101 2
#10650000000
1%
1*
1/
#10700000000
b01011 !
b10100 "
b01011 #
0%
b00001011000010110000101100001011 '
b00010100000101000001010000010100 (
0*
b01011 +
b10100 ,
b01011 -
0/
b00001011000010110000101100001011 1
b00010100000101000001010000010100 2
#10750000000
1%
1*
1/
#10800000000
b01100 !
b10011 "
b01100 #
0%
b00001100000011000000110000001100 '
b00010011000100110001001100010011 (
0*
b01100 +
b10011 ,
b01100 -
0/
b00001100000011000000110000001100 1
b00010011000100110001001100010011 2
#10850000000
1%
1*
1/
#10900000000
b01101 !
b10010 "
b01101 #
0%
b00001101000011010000110100001101 '
b00010010000100100001001000010010 (
0*
b01101 +
b10010 ,
b01101 -
0/
b00001101000011010000110100001101 1
b00010010000100100001001000010010 2
#10950000000
1%
1*
1/
#11000000000
b01110 !
b10001 "
b01110 #
0%
b00001110000011100000111000001110 '
b00010001000100010001000100010001 (
0*
b01110 +
b10001 ,
b01110 -
0/
b00001110000011100000111000001110 1
b00010001000100010001000100010001 2
#11050000000
1%
1*
1/
#11100000000
b01111 !
b10000 "
b01111 #
0%
b00001111000011110000111100001111 '
b00010000000100000001000000010000 (
0*
b01111 +
b10000 ,
b01111 -
0/
b00001111000011110000111100001111 1
b00010000000100000001000000010000 2
#11150000000
1%
1*
1/
#11200000000
b10000 !
b01111 "
b10000 #
0%
b00010000000100000001000000010000 '
b11111111111111111111111111111111 (
0*
b10000 +
b01111 ,
b10000 -
0/
b00010000000100000001000000010000 1
b11111111111111111111111111111111 2
#11250000000
1%
1*
1/
#11300000000
b10001 !
b01110 "
b10001 #
0%
b00010001000100010001000100010001 '
0*
b10001 +
b01110 ,
b10001 -
0/
b00010001000100010001000100010001 1
#11350000000
1%
1*
1/
#11400000000
b10010 !
b01101 "
b10010 #
0%
b00010010000100100001001000010010 '
0*
b10010 +
b01101 ,
b10010 -
0/
b00010010000100100001001000010010 1
#11450000000
1%
1*
1/
#11500000000
b10011 !
b01100 "
b10011 #
0%
b00010011000100110001001100010011 '
0*
b10011 +
b01100 ,
b10011 -
0/
b00010011000100110001001100010011 1
#11550000000
1%
1*
1/
#11600000000
b10100 !
b01011 "
b10100 #
0%
b00010100000101000001010000010100 '
0*
b10100 +
b01011 ,
b10100 -
0/
b00010100000101000001010000010100 1
#11650000000
1%
1*
1/
#11700000000
b10101 !
b01010 "
b10101 #
0%
b00010101000101010001010100010101 '
0*
b10101 +
b01010 ,
b10101 -
0/
b00010101000101010001010100010101 1
#11750000000
1%
1*
1/
#11800000000
b10110 !
b01001 "
b10110 #
0%
b00010110000101100001011000010110 '
0*
b10110 +
b01001 ,
b10110 -
0/
b00010110000101100001011000010110 1
#11850000000
1%
1*
1/
#11900000000
b10111 !
b01000 "
b10111 #
0%
b00010111000101110001011100010111 '
0*
b10111 +
b01000 ,
b10111 -
0/
b00010111000101110001011100010111 1
#11950000000
1%
1*
1/
#12000000000
b11000 !
b00111 "
b11000 #
0%
b00011000000110000001100000011000 '
0*
b11000 +
b00111 ,
b11000 -
0/
b00011000000110000001100000011000 1
#12050000000
1%
1*
1/
#12100000000
b11001 !
b00110 "
b11001 #
0%
b00011001000110010001100100011001 '
0*
b11001 +
b00110 ,
b11001 -
0/
b00011001000110010001100100011001 1
#12150000000
1%
1*
1/
#12200000000
b11010 !
b00101 "
b11010 #
0%
b00011010000110100001101000011010 '
0*
b11010 +
b00101 ,
b11010 -
0/
b00011010000110100001101000011010 1
#12250000000
1%
1*
1/
#12300000000
b11011 !
b00100 "
b11011 #
0%
b00011011000110110001101100011011 '
0*
b11011 +
b00100 ,
b11011 -
0/
b00011011000110110001101100011011 1
#12350000000
1%
1*
1/
#12400000000
b11100 !
b00011 "
b11100 #
0%
b00011100000111000001110000011100 '
0*
b11100 +
b00011 ,
b11100 -
0/
b00011100000111000001110000011100 1
#12450000000
1%
1*
1/
#12500000000
b11101 !
b00010 "
b11101 #
0%
b00011101000111010001110100011101 '
0*
b11101 +
b00010 ,
b11101 -
0/
b00011101000111010001110100011101 1
#12550000000
1%
1*
1/
#12600000000
b11110 !
b00001 "
b11110 #
0%
b00011110000111100001111000011110 '
0*
b11110 +
b00001 ,
b11110 -
0/
b00011110000111100001111000011110 1
#12650000000
1%
1*
1/
#12700000000
b11111 !
b00000 "
b11111 #
0%
b00011111000111110001111100011111 '
b00000000000000000000000000000000 (
0*
b11111 +
b00000 ,
b11111 -
0/
b00011111000111110001111100011111 1
b00000000000000000000000000000000 2
#12750000000
1%
1*
1/
#12800000000
b00000 #
0%
0*
b00000 -
0/
