Proj-VHDL/tb_blocks/signext/signext.vcd
$date
  Fri Nov 23 20:30:39 2007
$end
$version
  GHDL v0
$end
$timescale
  1 fs
$end
$var reg 16 ! a[15:0] $end
$var reg 32 " y[31:0] $end
$scope module signext_tb $end
$var reg 16 # a[15:0] $end
$var reg 32 $ y[31:0] $end
$upscope $end
$enddefinitions $end
#0
b0000000000000000 !
b00000000000000000000000000000000 "
b0000000000000000 #
b00000000000000000000000000000000 $
#10000000
b1000000000000000 !
b11111111111111111000000000000000 "
b1000000000000000 #
b11111111111111111000000000000000 $
#20000000
b1100000000000000 !
b11111111111111111100000000000000 "
b1100000000000000 #
b11111111111111111100000000000000 $
#30000000
b0100000000000000 !
b00000000000000000100000000000000 "
b0100000000000000 #
b00000000000000000100000000000000 $
#40000000
b0000000000000001 !
b00000000000000000000000000000001 "
b0000000000000001 #
b00000000000000000000000000000001 $
#50000000
b0111111111111111 !
b00000000000000000111111111111111 "
b0111111111111111 #
b00000000000000000111111111111111 $
#60000000
b1111111111111111 !
b11111111111111111111111111111111 "
b1111111111111111 #
b11111111111111111111111111111111 $
#70000000
b0000000000000000 !
b00000000000000000000000000000000 "
b0000000000000000 #
b00000000000000000000000000000000 $
