Proj-VHDL/tb_blocks/reg/reg.vcd
$date
  Fri Nov 23 20:46:14 2007
$end
$version
  GHDL v0
$end
$timescale
  1 fs
$end
$var reg 1 ! clk $end
$var reg 1 " reset $end
$var reg 32 # d[31:0] $end
$var reg 32 $ q[31:0] $end
$var reg 1 % erro $end
$var reg 1 & clock $end
$scope module reg_tb $end
$var reg 1 ' clk $end
$var reg 1 ( reset $end
$var reg 32 ) d[31:0] $end
$var reg 32 * q[31:0] $end
$upscope $end
$enddefinitions $end
#0
0!
1"
b00000000000000000000000000000001 #
b00000000000000000000000000000000 $
0%
0&
0'
1(
b00000000000000000000000000000001 )
b00000000000000000000000000000000 *
#50000000
1!
1&
1'
#100000000
0!
b00000000000000000000000000000010 #
0&
0'
b00000000000000000000000000000010 )
#150000000
1!
1&
1'
#200000000
0!
0"
b00000000000000000000000000000011 #
0&
0'
0(
b00000000000000000000000000000011 )
#250000000
1!
b00000000000000000000000000000011 $
1&
1'
b00000000000000000000000000000011 *
#300000000
0!
b00000000000000000000000000000100 #
0&
0'
b00000000000000000000000000000100 )
#350000000
1!
b00000000000000000000000000000100 $
1&
1'
b00000000000000000000000000000100 *
#400000000
0!
b00000000000000000000000000000101 #
0&
0'
b00000000000000000000000000000101 )
#450000000
1!
b00000000000000000000000000000101 $
1&
1'
b00000000000000000000000000000101 *
#500000000
0!
b00000000000000000000000000000110 #
0&
0'
b00000000000000000000000000000110 )
#550000000
1!
b00000000000000000000000000000110 $
1&
1'
b00000000000000000000000000000110 *
#600000000
0!
b00000000000000000000000000000111 #
0&
0'
b00000000000000000000000000000111 )
#650000000
1!
b00000000000000000000000000000111 $
1&
1'
b00000000000000000000000000000111 *
#700000000
0!
b00000000000000000000000000001000 #
0&
0'
b00000000000000000000000000001000 )
#750000000
1!
b00000000000000000000000000001000 $
1&
1'
b00000000000000000000000000001000 *
#800000000
0!
b00000000000000000000000000001001 #
0&
0'
b00000000000000000000000000001001 )
#850000000
1!
b00000000000000000000000000001001 $
1&
1'
b00000000000000000000000000001001 *
#900000000
0!
b00000000000000000000000000001010 #
0&
0'
b00000000000000000000000000001010 )
#950000000
1!
b00000000000000000000000000001010 $
1&
1'
b00000000000000000000000000001010 *
#1000000000
0!
1"
b00000000000000000000000000001011 #
b00000000000000000000000000000000 $
0&
0'
1(
b00000000000000000000000000001011 )
b00000000000000000000000000000000 *
#1050000000
1!
1&
1'
#1100000000
0!
b00000000000000000000000000001100 #
0&
0'
b00000000000000000000000000001100 )
#1150000000
1!
1&
1'
#1200000000
0!
b00000000000000000000000000001101 #
0&
0'
b00000000000000000000000000001101 )
#1250000000
1!
1&
1'
#1300000000
0!
b00000000000000000000000000001110 #
0&
0'
b00000000000000000000000000001110 )
#1350000000
1!
1&
1'
#1400000000
0!
b00000000000000000000000000001111 #
0&
0'
b00000000000000000000000000001111 )
#1450000000
1!
1&
1'
#1500000000
0!
b00000000000000000000000000010000 #
0&
0'
b00000000000000000000000000010000 )
#1550000000
1!
1&
1'
#1600000000
0!
b00000000000000000000000000010001 #
0&
0'
b00000000000000000000000000010001 )
#1650000000
1!
1&
1'
#1700000000
0!
b00000000000000000000000000010010 #
0&
0'
b00000000000000000000000000010010 )
#1750000000
1!
1&
1'
#1800000000
0!
b00000000000000000000000000010011 #
0&
0'
b00000000000000000000000000010011 )
#1850000000
1!
1&
1'
#1900000000
0!
b00000000000000000000000000010100 #
0&
0'
b00000000000000000000000000010100 )
#1950000000
1!
1&
1'
#2000000000
0!
0"
b00000000000000000000000000010101 #
0&
0'
0(
b00000000000000000000000000010101 )
#2050000000
1!
b00000000000000000000000000010101 $
1&
1'
b00000000000000000000000000010101 *
#2100000000
0!
b00000000000000000000000000010110 #
0&
0'
b00000000000000000000000000010110 )
#2150000000
1!
b00000000000000000000000000010110 $
1&
1'
b00000000000000000000000000010110 *
#2200000000
0!
b00000000000000000000000000010111 #
0&
0'
b00000000000000000000000000010111 )
#2250000000
1!
b00000000000000000000000000010111 $
1&
1'
b00000000000000000000000000010111 *
#2300000000
0!
b00000000000000000000000000011000 #
0&
0'
b00000000000000000000000000011000 )
#2350000000
1!
b00000000000000000000000000011000 $
1&
1'
b00000000000000000000000000011000 *
#2400000000
0!
b00000000000000000000000000011001 #
0&
0'
b00000000000000000000000000011001 )
#2450000000
1!
b00000000000000000000000000011001 $
1&
1'
b00000000000000000000000000011001 *
#2500000000
0!
b00000000000000000000000000011010 #
0&
0'
b00000000000000000000000000011010 )
#2550000000
1!
b00000000000000000000000000011010 $
1&
1'
b00000000000000000000000000011010 *
#2600000000
0!
b00000000000000000000000000011011 #
0&
0'
b00000000000000000000000000011011 )
#2650000000
1!
b00000000000000000000000000011011 $
1&
1'
b00000000000000000000000000011011 *
#2700000000
0!
b00000000000000000000000000011100 #
0&
0'
b00000000000000000000000000011100 )
#2750000000
1!
b00000000000000000000000000011100 $
1&
1'
b00000000000000000000000000011100 *
#2800000000
0!
b00000000000000000000000000011101 #
0&
0'
b00000000000000000000000000011101 )
#2850000000
1!
b00000000000000000000000000011101 $
1&
1'
b00000000000000000000000000011101 *
#2900000000
0!
b00000000000000000000000000011110 #
0&
0'
b00000000000000000000000000011110 )
#2950000000
1!
b00000000000000000000000000011110 $
1&
1'
b00000000000000000000000000011110 *
#3000000000
0!
1"
b00000000000000000000000000011111 #
b00000000000000000000000000000000 $
0&
0'
1(
b00000000000000000000000000011111 )
b00000000000000000000000000000000 *
#3050000000
1!
1&
1'
#3100000000
0!
b00000000000000000000000000100000 #
0&
0'
b00000000000000000000000000100000 )
#3150000000
1!
1&
1'
#3200000000
0!
b00000000000000000000000000100001 #
0&
0'
b00000000000000000000000000100001 )
#3250000000
1!
1&
1'
#3300000000
0!
b00000000000000000000000000100010 #
0&
0'
b00000000000000000000000000100010 )
#3350000000
1!
1&
1'
#3400000000
0!
b00000000000000000000000000100011 #
0&
0'
b00000000000000000000000000100011 )
#3450000000
1!
1&
1'
#3500000000
0!
b00000000000000000000000000100100 #
0&
0'
b00000000000000000000000000100100 )
#3550000000
1!
1&
1'
#3600000000
0!
b00000000000000000000000000100101 #
0&
0'
b00000000000000000000000000100101 )
#3650000000
1!
1&
1'
#3700000000
0!
b00000000000000000000000000100110 #
0&
0'
b00000000000000000000000000100110 )
#3750000000
1!
1&
1'
#3800000000
0!
b00000000000000000000000000100111 #
0&
0'
b00000000000000000000000000100111 )
#3850000000
1!
1&
1'
#3900000000
0!
b00000000000000000000000000101000 #
0&
0'
b00000000000000000000000000101000 )
