Proj-VHDL/tb_blocks/alu/ALU.vcd
$date
  Fri Nov 23 19:47:41 2007
$end
$version
  GHDL v0
$end
$timescale
  1 fs
$end
$var reg 32 ! srca[31:0] $end
$var reg 32 " srcb[31:0] $end
$var reg 4 # alucontrol[3:0] $end
$var reg 32 $ aluresult[31:0] $end
$var reg 1 % zero $end
$var reg 1 & overflow $end
$scope module alu_tb $end
$var reg 32 ' srca[31:0] $end
$var reg 32 ( srcb[31:0] $end
$var reg 4 ) alucontrol[3:0] $end
$var reg 32 * aluresult[31:0] $end
$var reg 1 + zero $end
$var reg 1 , overflow $end
$var reg 33 - temp_v[32:0] $end
$upscope $end
$enddefinitions $end
#0
b00000000000000000000000000000000 !
b00000000000000000000000000000000 "
b0000 #
b00000000000000000000000000000000 $
1%
0&
b00000000000000000000000000000000 '
b00000000000000000000000000000000 (
b0000 )
b00000000000000000000000000000000 *
1+
0,
b000000000000000000000000000000000 -
#10000000
b10000000000000000000000000000000 "
b10000000000000000000000000000000 $
0%
0&
b10000000000000000000000000000000 (
b10000000000000000000000000000000 *
0+
0,
b010000000000000000000000000000000 -
#20000000
b11111111111111111111111111111111 !
b11111111111111111111111111111111 "
b11111111111111111111111111111110 $
0&
b11111111111111111111111111111111 '
b11111111111111111111111111111111 (
b11111111111111111111111111111110 *
0,
b111111111111111111111111111111110 -
#30000000
b00000000000000000000000000000000 "
b11111111111111111111111111111111 $
0&
b00000000000000000000000000000000 (
b11111111111111111111111111111111 *
0,
b011111111111111111111111111111111 -
#40000000
b01111111111111111111111111111111 !
b00000000000000000000000000000001 "
b10000000000000000000000000000000 $
1&
b01111111111111111111111111111111 '
b00000000000000000000000000000001 (
b10000000000000000000000000000000 *
1,
b010000000000000000000000000000000 -
#50000000
b00000000000000000000000000000000 "
b01111111111111111111111111111111 $
0&
b00000000000000000000000000000000 (
b01111111111111111111111111111111 *
0,
b001111111111111111111111111111111 -
#60000000
b00111110000000111111000000111110 !
b11111100000111100000011100000111 "
b00111010001000011111011101000101 $
0&
b00111110000000111111000000111110 '
b11111100000111100000011100000111 (
b00111010001000011111011101000101 *
0,
b100111010001000011111011101000101 -
#80000000
b00000000000000000000000000000000 !
b00000000000000000000000000000000 "
b0001 #
b00000000000000000000000000000000 $
1%
0&
b00000000000000000000000000000000 '
b00000000000000000000000000000000 (
b0001 )
b00000000000000000000000000000000 *
1+
0,
b000000000000000000000000000000000 -
#90000000
b10000000000000000000000000000000 "
b10000000000000000000000000000000 $
0%
b10000000000000000000000000000000 (
b10000000000000000000000000000000 *
0+
b010000000000000000000000000000000 -
#100000000
b11111111111111111111111111111111 !
b11111111111111111111111111111111 "
b11111111111111111111111111111110 $
1&
b11111111111111111111111111111111 '
b11111111111111111111111111111111 (
b11111111111111111111111111111110 *
1,
b111111111111111111111111111111110 -
#110000000
b00000000000000000000000000000000 "
b11111111111111111111111111111111 $
0&
b00000000000000000000000000000000 (
b11111111111111111111111111111111 *
0,
b011111111111111111111111111111111 -
#120000000
b01111111111111111111111111111111 !
b00000000000000000000000000000001 "
b10000000000000000000000000000000 $
b01111111111111111111111111111111 '
b00000000000000000000000000000001 (
b10000000000000000000000000000000 *
b010000000000000000000000000000000 -
#130000000
b00000000000000000000000000000000 "
b01111111111111111111111111111111 $
b00000000000000000000000000000000 (
b01111111111111111111111111111111 *
b001111111111111111111111111111111 -
#140000000
b00111110000000111111000000111110 !
b11111100000111100000011100000111 "
b00111010001000011111011101000101 $
1&
b00111110000000111111000000111110 '
b11111100000111100000011100000111 (
b00111010001000011111011101000101 *
1,
b100111010001000011111011101000101 -
#160000000
b00000000000000000000000000000000 !
b00000000000000000000000000000000 "
b0010 #
b00000000000000000000000000000000 $
1%
0&
b00000000000000000000000000000000 '
b00000000000000000000000000000000 (
b0010 )
b00000000000000000000000000000000 *
1+
0,
b000000000000000000000000000000000 -
#170000000
b10000000000000000000000000000000 "
b10000000000000000000000000000000 $
0%
1&
b10000000000000000000000000000000 (
b10000000000000000000000000000000 *
0+
1,
b110000000000000000000000000000000 -
#180000000
b11111111111111111111111111111111 !
b11111111111111111111111111111111 "
b00000000000000000000000000000000 $
1%
0&
b11111111111111111111111111111111 '
b11111111111111111111111111111111 (
b00000000000000000000000000000000 *
1+
0,
b000000000000000000000000000000000 -
#190000000
b00000000000000000000000000000000 "
b11111111111111111111111111111111 $
0%
0&
b00000000000000000000000000000000 (
b11111111111111111111111111111111 *
0+
0,
b011111111111111111111111111111111 -
#200000000
b01111111111111111111111111111111 !
b00000000000000000000000000000001 "
b01111111111111111111111111111110 $
0&
b01111111111111111111111111111111 '
b00000000000000000000000000000001 (
b01111111111111111111111111111110 *
0,
b001111111111111111111111111111110 -
#210000000
b00000000000000000000000000000000 "
b01111111111111111111111111111111 $
b00000000000000000000000000000000 (
b01111111111111111111111111111111 *
b001111111111111111111111111111111 -
#220000000
b00111110000000111111000000111110 !
b11111100000111100000011100000111 "
b01000001111001011110100100110111 $
0&
b00111110000000111111000000111110 '
b11111100000111100000011100000111 (
b01000001111001011110100100110111 *
0,
b101000001111001011110100100110111 -
#240000000
b00000000000000000000000000000000 !
b00000000000000000000000000000000 "
b0011 #
b00000000000000000000000000000000 $
1%
0&
b00000000000000000000000000000000 '
b00000000000000000000000000000000 (
b0011 )
b00000000000000000000000000000000 *
1+
0,
b000000000000000000000000000000000 -
#250000000
b10000000000000000000000000000000 "
b10000000000000000000000000000000 $
0%
1&
b10000000000000000000000000000000 (
b10000000000000000000000000000000 *
0+
1,
b110000000000000000000000000000000 -
#260000000
b11111111111111111111111111111111 !
b11111111111111111111111111111111 "
b00000000000000000000000000000000 $
1%
0&
b11111111111111111111111111111111 '
b11111111111111111111111111111111 (
b00000000000000000000000000000000 *
1+
0,
b000000000000000000000000000000000 -
#270000000
b00000000000000000000000000000000 "
b11111111111111111111111111111111 $
0%
b00000000000000000000000000000000 (
b11111111111111111111111111111111 *
0+
b011111111111111111111111111111111 -
#280000000
b01111111111111111111111111111111 !
b00000000000000000000000000000001 "
b01111111111111111111111111111110 $
b01111111111111111111111111111111 '
b00000000000000000000000000000001 (
b01111111111111111111111111111110 *
b001111111111111111111111111111110 -
#290000000
b00000000000000000000000000000000 "
b01111111111111111111111111111111 $
b00000000000000000000000000000000 (
b01111111111111111111111111111111 *
b001111111111111111111111111111111 -
#300000000
b00111110000000111111000000111110 !
b11111100000111100000011100000111 "
b01000001111001011110100100110111 $
1&
b00111110000000111111000000111110 '
b11111100000111100000011100000111 (
b01000001111001011110100100110111 *
1,
b101000001111001011110100100110111 -
#320000000
b00000000000000000000000000000000 !
b00000000000000000000000000000000 "
b0100 #
b00000000000000000000000000000000 $
1%
0&
b00000000000000000000000000000000 '
b00000000000000000000000000000000 (
b0100 )
b00000000000000000000000000000000 *
1+
0,
#330000000
b11111111111111111111111111111111 !
b11111111111111111111111111111111 '
#340000000
b00000000000000000000000000000000 !
b11111111111111111111111111111111 "
b00000000000000000000000000000000 '
b11111111111111111111111111111111 (
#350000000
b11111111111111111111111111111111 !
b11111111111111111111111111111111 $
0%
b11111111111111111111111111111111 '
b11111111111111111111111111111111 *
0+
#360000000
b00000000000000000000000000000000 !
b00000000000000000000000000000000 "
b0101 #
b00000000000000000000000000000000 $
1%
b00000000000000000000000000000000 '
b00000000000000000000000000000000 (
b0101 )
b00000000000000000000000000000000 *
1+
#370000000
b11111111111111111111111111111111 !
b11111111111111111111111111111111 $
0%
b11111111111111111111111111111111 '
b11111111111111111111111111111111 *
0+
#380000000
b00000000000000000000000000000000 !
b11111111111111111111111111111111 "
b00000000000000000000000000000000 '
b11111111111111111111111111111111 (
#390000000
b11111111111111111111111111111111 !
b11111111111111111111111111111111 '
#400000000
b00000000000000000000000000000000 !
b00000000000000000000000000000000 "
b0110 #
b00000000000000000000000000000000 $
1%
b00000000000000000000000000000000 '
b00000000000000000000000000000000 (
b0110 )
b00000000000000000000000000000000 *
1+
#410000000
b11111111111111111111111111111111 !
b11111111111111111111111111111111 $
0%
b11111111111111111111111111111111 '
b11111111111111111111111111111111 *
0+
#420000000
b00000000000000000000000000000000 !
b11111111111111111111111111111111 "
b00000000000000000000000000000000 '
b11111111111111111111111111111111 (
#430000000
b11111111111111111111111111111111 !
b00000000000000000000000000000000 $
1%
b11111111111111111111111111111111 '
b00000000000000000000000000000000 *
1+
#440000000
b00000000000000000000000000000000 !
b00000000000000000000000000000000 "
b0111 #
b11111111111111111111111111111111 $
0%
b00000000000000000000000000000000 '
b00000000000000000000000000000000 (
b0111 )
b11111111111111111111111111111111 *
0+
#450000000
b11111111111111111111111111111111 !
b00000000000000000000000000000000 $
1%
b11111111111111111111111111111111 '
b00000000000000000000000000000000 *
1+
#460000000
b00000000000000000000000000000000 !
b11111111111111111111111111111111 "
b00000000000000000000000000000000 '
b11111111111111111111111111111111 (
#470000000
b11111111111111111111111111111111 !
b11111111111111111111111111111111 '
#480000000
b00000000000000000000000000000001 !
b00000000000000000000000000000010 "
b1010 #
b00000000000000000000000000000001 $
0%
b00000000000000000000000000000001 '
b00000000000000000000000000000010 (
b1010 )
b00000000000000000000000000000001 *
0+
#490000000
b00000000000000000000000000000010 !
b00000000000000000000000000000000 $
1%
b00000000000000000000000000000010 '
b00000000000000000000000000000000 *
1+
#500000000
b00000000000000000000000000000000 !
b00000000000000000000000000000001 "
b00000000000000000000000000000001 $
0%
b00000000000000000000000000000000 '
b00000000000000000000000000000001 (
b00000000000000000000000000000001 *
0+
#510000000
b11111111111111111111111111111111 !
b11111111111111111111111111111111 '
#520000000
b00000000000000000000000000000000 !
b11111111111111111111111111111111 "
b00000000000000000000000000000000 $
1%
b00000000000000000000000000000000 '
b11111111111111111111111111111111 (
b00000000000000000000000000000000 *
1+
#530000000
b11111111111111111111111111111111 !
b11111111111111111111111111111111 '
#540000000
b00000000000000000000000000000001 !
b00000000000000000000000000000010 "
b1011 #
b00000000000000000000000000000001 $
0%
b00000000000000000000000000000001 '
b00000000000000000000000000000010 (
b1011 )
b00000000000000000000000000000001 *
0+
#550000000
b00000000000000000000000000000010 !
b00000000000000000000000000000000 $
1%
b00000000000000000000000000000010 '
b00000000000000000000000000000000 *
1+
#560000000
b00000000000000000000000000000000 !
b00000000000000000000000000000001 "
b00000000000000000000000000000001 $
0%
b00000000000000000000000000000000 '
b00000000000000000000000000000001 (
b00000000000000000000000000000001 *
0+
#570000000
b11111111111111111111111111111111 !
b00000000000000000000000000000000 $
1%
b11111111111111111111111111111111 '
b00000000000000000000000000000000 *
1+
#580000000
b00000000000000000000000000000000 !
b11111111111111111111111111111111 "
b00000000000000000000000000000001 $
0%
b00000000000000000000000000000000 '
b11111111111111111111111111111111 (
b00000000000000000000000000000001 *
0+
#590000000
b11111111111111111111111111111111 !
b00000000000000000000000000000000 $
1%
b11111111111111111111111111111111 '
b00000000000000000000000000000000 *
1+
#600000000
b1111 #
b1111 )
